<?xml version="1.0" encoding="UTF-8"?>
<svg width="83px" height="82px" viewBox="0 0 83 82" version="1.1" xmlns="http://www.w3.org/2000/svg" xmlns:xlink="http://www.w3.org/1999/xlink">
    <!-- Generator: Sketch 48.2 (47327) - http://www.bohemiancoding.com/sketch -->
    <title>xxxhdpi/Fill 1</title>
    <desc>Created with Sketch.</desc>
    <defs></defs>
    <g id="1---стартовый-экран-copy-3" stroke="none" stroke-width="1" fill="none" fill-rule="evenodd" transform="translate(-147.000000, -116.000000)">
        <path d="M166.494175,143.969517 L164.555232,142.053792 C163.489799,141.001458 161.700937,141.273767 160.994797,142.5885 C154.752279,154.210292 156.584022,168.955258 166.491063,178.743667 C172.568631,184.748458 180.534309,187.744192 188.499986,187.74385 L188.499986,187.76025 C188.569148,187.757858 188.637618,187.75 188.707471,187.75 C191.572832,187.75 193.895622,190.044633 193.895622,192.875 C193.895622,195.705367 191.572832,198 188.707471,198 C188.637618,198 188.569148,197.992142 188.499986,197.989408 L188.499986,197.98975 C177.879198,197.990092 167.258064,193.9984 159.154755,185.992125 C144.895726,171.903842 143.182595,150.114733 154.014326,134.175642 C154.611881,133.296533 154.506756,132.125983 153.749091,131.377392 L150.7748,128.438717 C149.368055,127.048817 150.364327,124.672525 152.354104,124.672525 L166.897041,124.672525 C168.780309,124.672525 170.30705,126.180642 170.30705,128.041017 L170.30705,142.409808 C170.30705,144.375417 167.900921,145.359758 166.494175,143.969517 Z M186.805529,139.877717 L190.240781,139.877717 C192.124395,139.877717 193.651136,141.385833 193.651136,143.246208 L193.651136,148.468583 C193.651136,150.3211 195.185484,151.837075 197.060798,151.837075 L202.34543,151.837075 C204.229044,151.837075 205.755784,153.345192 205.755784,155.205567 L205.755784,158.719267 C205.755784,160.579642 204.229044,162.087758 202.34543,162.087758 L197.060798,162.087758 C195.177876,162.087758 193.651136,163.595875 193.651136,165.45625 L193.651136,170.56075 C193.651136,172.486042 192.070795,174.047117 190.121478,174.047117 L186.805529,174.047117 C184.856212,174.047117 183.275871,172.486042 183.275871,170.56075 L183.275871,165.45625 C183.275871,163.595875 181.749131,162.087758 179.865863,162.087758 L174.700881,162.087758 C172.751563,162.087758 171.171223,160.526683 171.171223,158.60105 L171.171223,155.323442 C171.171223,153.39815 172.751563,151.837075 174.700881,151.837075 L179.865863,151.837075 C181.749131,151.837075 183.275871,150.328958 183.275871,148.468583 L183.275871,143.364083 C183.275871,141.43845 184.856212,139.877717 186.805529,139.877717 Z M188.707471,126.251367 C185.842455,126.251367 183.51932,123.956733 183.51932,121.126367 C183.51932,118.295658 185.842455,116.001367 188.707471,116.001367 L188.914955,116 C199.39742,116.102158 209.847379,120.103075 217.845563,128.005142 C232.104246,142.093083 233.817377,163.882192 222.985646,179.821625 C222.388091,180.700392 222.493216,181.870942 223.250881,182.619875 L226.151861,185.485775 C227.558606,186.876017 226.562334,189.252308 224.572557,189.252308 L210.029966,189.252308 C208.146698,189.252308 206.619957,187.744192 206.619957,185.883817 L206.619957,171.515367 C206.619957,169.549417 209.026086,168.565075 210.432831,169.955317 L212.445086,171.943475 C213.510173,172.995808 215.299036,172.7235 216.005175,171.408767 C222.248039,159.786975 220.41595,145.041667 210.509255,135.253258 C204.536812,129.353017 196.741618,126.363092 188.914955,126.260592 L188.707471,126.251367 Z" id="Fill-1" fill="#EE4266"></path>
    </g>
</svg>