<?xml version="1.0" encoding="utf-8"?>
<!-- Generator: Adobe Illustrator 21.0.0, SVG Export Plug-In . SVG Version: 6.00 Build 0)  -->
<svg version="1.1" id="Слой_2" xmlns="http://www.w3.org/2000/svg" xmlns:xlink="http://www.w3.org/1999/xlink" x="0px" y="0px"
	 viewBox="0 0 28.1 28.1" style="enable-background:new 0 0 28.1 28.1;" xml:space="preserve">
<style type="text/css">
	.st0{fill-rule:evenodd;clip-rule:evenodd;fill:#F9F9F9;}
	.st1{fill:#DDDDDD;}
	.st2{font-family:'MyriadPro-Regular';}
	.st3{font-size:12px;}
</style>
<g>
	<path class="st0" d="M14.1,27.6c-7.5,0-13.6-6.1-13.6-13.6S6.6,0.5,14.1,0.5s13.6,6.1,13.6,13.6S21.5,27.6,14.1,27.6z"/>
	<path class="st1" d="M14.1,1c7.2,0,13.1,5.8,13.1,13.1c0,7.2-5.8,13.1-13.1,13.1C6.8,27.1,1,21.3,1,14.1C1,6.8,6.8,1,14.1,1
		 M14.1,0C6.3,0,0,6.3,0,14.1c0,7.8,6.3,14.1,14.1,14.1s14.1-6.3,14.1-14.1C28.1,6.3,21.8,0,14.1,0L14.1,0z"/>
</g>
<text transform="matrix(1 0 0 1 10.9844 17.5849)" class="st2 st3">1</text>
</svg>
